ISSS608-VAA - Take-home Exercise 4
…
3.1 Data Import

The function read_excel() is used to read the downloaded .xlsx file. The arguments included are path to the excel file, col_types = NULL to guess the data type for the column and range to define the rows and columns where data is extracted. By selecting specific rows and columns, we can reduce some data processing steps compared to importing all rows and columns.

Show the code

# Read the Excel file and select the relevant columns and rows
imports <- read_excel("data/outputFile.xlsx", col_types = NULL, range = "T1!A10:AL129")
exports <- read_excel("data/outputFile.xlsx", col_types = NULL, range = "T2!A10:AL101")

# Review data
imports

# A tibble: 119 × 38
   `Data Series` 2023 …¹ 2022 …² 2022 …³ 2022 …⁴ 2022 …⁵ 2022 …⁶ 2022 …⁷ 2022 …⁸
   <chr>           <dbl>   <dbl>   <dbl>   <dbl>   <dbl>   <dbl>   <dbl>   <dbl>
 1 Total Mercha…  4.44e7  4.99e7  5.07e7  5.32e7  5.58e7  5.85e7  6.10e7  5.96e7
 2 America (Mil…  6.27e3  6.90e3  7.53e3  7.67e3  8.00e3  8.63e3  7.88e3  8.02e3
 3 Asia (Millio…  3.02e4  3.36e4  3.47e4  3.61e4  3.77e4  4.09e4  4.32e4  4.25e4
 4 Europe (Mill…  6.43e3  7.54e3  7.24e3  7.48e3  8.17e3  7.43e3  8.30e3  7.30e3
 5 Oceania (Mil…  9.83e2  1.40e3  6.64e2  1.33e3  1.54e3  9.36e2  1.06e3  1.14e3
 6 Africa (Mill…  5.41e2  4.15e2  4.84e2  5.90e2  3.95e2  5.51e2  5.74e2  6.76e2
 7 European Uni…  4.58e3  5.06e3  4.96e3  4.69e3  5.15e3  5.13e3  5.23e3  5.14e3
 8 Belgium (Tho…  9.41e4  1.04e5  1.22e5  8.88e4  2.16e5  1.33e5  2.25e5  1.15e5
 9 Denmark (Tho…  5.75e4  6.77e4  6.74e4  6.37e4  6.18e4  1.26e5  5.58e4  5.10e4
10 France (Thou…  1.61e6  1.54e6  1.56e6  1.49e6  1.66e6  1.62e6  1.56e6  1.54e6
# … with 109 more rows, 29 more variables: `2022 May` <dbl>, `2022 Apr` <dbl>,
#   `2022 Mar` <dbl>, `2022 Feb` <dbl>, `2022 Jan` <dbl>, `2021 Dec` <dbl>,
#   `2021 Nov` <dbl>, `2021 Oct` <dbl>, `2021 Sep` <dbl>, `2021 Aug` <dbl>,
#   `2021 Jul` <dbl>, `2021 Jun` <dbl>, `2021 May` <dbl>, `2021 Apr` <dbl>,
#   `2021 Mar` <dbl>, `2021 Feb` <dbl>, `2021 Jan` <dbl>, `2020 Dec` <dbl>,
#   `2020 Nov` <dbl>, `2020 Oct` <dbl>, `2020 Sep` <dbl>, `2020 Aug` <dbl>,
#   `2020 Jul` <dbl>, `2020 Jun` <dbl>, `2020 May` <dbl>, `2020 Apr` <dbl>, …

Show the code

exports

# A tibble: 91 × 38
   `Data Series` 2023 …¹ 2022 …² 2022 …³ 2022 …⁴ 2022 …⁵ 2022 …⁶ 2022 …⁷ 2022 …⁸
   <chr>           <dbl>   <dbl>   <dbl>   <dbl>   <dbl>   <dbl>   <dbl>   <dbl>
 1 Total Mercha…  4.96e7  5.50e7  5.42e7  5.66e7  6.25e7  6.34e7  6.41e7  6.42e7
 2 America (Mil…  5.82e3  6.22e3  6.39e3  6.65e3  7.09e3  7.93e3  6.73e3  7.51e3
 3 Asia (Millio…  3.46e4  3.97e4  3.80e4  4.05e4  4.56e4  4.41e4  4.61e4  4.63e4
 4 Europe (Mill…  5.38e3  4.92e3  5.03e3  5.12e3  5.16e3  6.11e3  6.25e3  5.46e3
 5 Oceania (Mil…  2.84e3  3.03e3  3.24e3  3.11e3  3.45e3  3.61e3  3.92e3  3.67e3
 6 Africa (Mill…  8.76e2  1.09e3  1.53e3  1.19e3  1.20e3  1.61e3  1.10e3  1.21e3
 7 European Uni…  4.54e3  4.14e3  4.24e3  4.30e3  4.07e3  5.02e3  5.50e3  4.61e3
 8 Belgium (Tho…  8.73e5  4.32e5  7.57e5  3.51e5  3.87e5  5.71e5  9.92e5  5.89e5
 9 Denmark (Tho…  2.71e4  3.11e4  2.92e4  6.73e4  4.48e4  4.28e4  4.86e4  3.43e4
10 France (Thou…  5.02e5  4.02e5  3.24e5  5.30e5  3.59e5  4.54e5  4.59e5  4.25e5
# … with 81 more rows, 29 more variables: `2022 May` <dbl>, `2022 Apr` <dbl>,
#   `2022 Mar` <dbl>, `2022 Feb` <dbl>, `2022 Jan` <dbl>, `2021 Dec` <dbl>,
#   `2021 Nov` <dbl>, `2021 Oct` <dbl>, `2021 Sep` <dbl>, `2021 Aug` <dbl>,
#   `2021 Jul` <dbl>, `2021 Jun` <dbl>, `2021 May` <dbl>, `2021 Apr` <dbl>,
#   `2021 Mar` <dbl>, `2021 Feb` <dbl>, `2021 Jan` <dbl>, `2020 Dec` <dbl>,
#   `2020 Nov` <dbl>, `2020 Oct` <dbl>, `2020 Sep` <dbl>, `2020 Aug` <dbl>,
#   `2020 Jul` <dbl>, `2020 Jun` <dbl>, `2020 May` <dbl>, `2020 Apr` <dbl>, …
…
